<svg width="100%" height="100%">
  <rect
    width="100%"
    height="100%"
    clip-path="url(#clip-path_data_list_placeholder)"
    style='fill: url("#fill_data_list_placeholder");'
  ></rect>
  <defs>
    <clipPath id="clip-path_data_list_placeholder">
        <rect x="203" y="14" rx="3" ry="3" width="185" height="7" /> 
        <rect x="204" y="34" rx="3" ry="3" width="185" height="7" /> 
        <rect x="16" y="34" rx="3" ry="3" width="165" height="6" /> 
        <rect x="16" y="14" rx="3" ry="3" width="165" height="6" /> 
        <rect x="203" y="53" rx="3" ry="3" width="185" height="7" /> 
        <rect x="204" y="74" rx="3" ry="3" width="185" height="7" /> 
        <rect x="204" y="94" rx="3" ry="3" width="185" height="7" /> 
        <rect x="17" y="53" rx="3" ry="3" width="165" height="6" /> 
        <rect x="17" y="74" rx="3" ry="3" width="165" height="6" /> 
        <rect x="17" y="94" rx="3" ry="3" width="165" height="6" />
    </clipPath>
    <linearGradient id="fill_data_list_placeholder">
      <stop
        offset="0.599964"
        stop-color="#f3f3f3"
        stop-opacity="1"
      >
        <animate
          attributeName="offset"
          values="-2; -2; 1"
          keyTimes="0; 0.25; 1"
          dur="2s"
          repeatCount="indefinite"
        ></animate>
      </stop>
      <stop
        offset="1.59996"
        stop-color="#ecebeb"
        stop-opacity="1"
      >
        <animate
          attributeName="offset"
          values="-1; -1; 2"
          keyTimes="0; 0.25; 1"
          dur="2s"
          repeatCount="indefinite"
        ></animate>
      </stop>
      <stop
        offset="2.59996"
        stop-color="#f3f3f3"
        stop-opacity="1"
      >
        <animate
          attributeName="offset"
          values="0; 0; 3"
          keyTimes="0; 0.25; 1"
          dur="2s"
          repeatCount="indefinite"
        ></animate>
      </stop>
    </linearGradient>
  </defs>
</svg>